{
  "IcoMoonType": "selection",
  "icons": [
    {
      "icon": {
        "paths": [
          "M935.79 280.137l-316.855-269.166c-7.91-6.823-18.289-10.978-29.638-10.978-0.278 0-0.555 0.002-0.831 0.007l0.042-0.001h-543.232c-0.421-0.015-0.916-0.023-1.413-0.023-23.731 0-43.063 18.836-43.86 42.373l-0.002 0.073v939.154c0.799 23.61 20.131 42.446 43.862 42.446 0.497 0 0.992-0.008 1.485-0.025l-0.072 0.002h860.379c0.399 0.013 0.869 0.020 1.34 0.020 23.73 0 43.061-18.835 43.86-42.37l0.002-0.073v-669.989c-0.047-12.669-5.881-23.966-14.994-31.393l-0.074-0.058zM625.079 130.926l216.43 183.589h-216.43v-183.589zM860.16 938.423h-769.463v-852.846h443.977v272.091c0.801 23.609 20.132 42.443 43.862 42.443 0.471 0 0.941-0.007 1.409-0.022l-0.068 0.002h280.503v538.331zM245.248 554.423c0.4 23.929 19.893 43.174 43.88 43.174 0.465 0 0.928-0.007 1.39-0.022l-0.068 0.002h369.957c0.748 0.047 1.622 0.073 2.503 0.073 23.672 0 42.862-19.19 42.862-42.862s-19.19-42.862-42.862-42.862c-0.881 0-1.755 0.027-2.622 0.079l0.119-0.006h-369.957c-0.399-0.013-0.869-0.020-1.34-0.020-23.73 0-43.061 18.835-43.86 42.37l-0.002 0.073zM660.407 720.457h-369.957c-0.745-0.047-1.615-0.073-2.492-0.073-23.47 0-42.496 19.026-42.496 42.496s19.026 42.496 42.496 42.496c0.877 0 1.747-0.027 2.611-0.079l-0.119 0.006h369.957c0.745 0.047 1.615 0.073 2.492 0.073 23.47 0 42.496-19.026 42.496-42.496s-19.026-42.496-42.496-42.496c-0.877 0-1.747 0.027-2.611 0.079l0.119-0.006z"
        ],
        "attrs": [],
        "width": 951,
        "grid": 0,
        "tags": [
          "text"
        ]
      },
      "attrs": [],
      "properties": {
        "order": 149,
        "id": 13,
        "name": "text",
        "prevSize": 32,
        "code": 59659
      },
      "setIdx": 0,
      "setId": 0,
      "iconIdx": 0
    },
    {
      "icon": {
        "paths": [
          "M680.823 492.203l-212.514-154.965c-4.206-3.116-9.498-4.988-15.227-4.988-14.214 0-25.737 11.523-25.737 25.737 0 0.146 0.001 0.291 0.004 0.436l-0-0.022v308.565c0.119 9.981 5.684 18.635 13.857 23.141l0.138 0.070c3.427 1.515 7.406 2.497 11.586 2.727l0.088 0.004c5.737-0.153 10.971-2.186 15.139-5.501l-0.052 0.040 212.514-154.283c6.491-4.604 10.675-12.090 10.675-20.553 0-8.375-4.098-15.792-10.398-20.357l-0.073-0.050zM512 0c-282.77 0-512 229.23-512 512s229.23 512 512 512c282.77 0 512-229.23 512-512v0c0-282.77-229.23-512-512-512v0zM512 937.984c-235.147-0.155-425.711-190.815-425.711-425.984 0-235.264 190.72-425.984 425.984-425.984s425.984 190.72 425.984 425.984l-0-0c0 235.265-190.72 425.984-425.984 425.984-0.096 0-0.192-0-0.288-0l0.015 0z"
        ],
        "attrs": [],
        "grid": 0,
        "tags": [
          "slides"
        ]
      },
      "attrs": [],
      "properties": {
        "order": 148,
        "id": 12,
        "name": "slides",
        "prevSize": 32,
        "code": 59660
      },
      "setIdx": 0,
      "setId": 0,
      "iconIdx": 1
    },
    {
      "icon": {
        "paths": [
          "M844.459 0h-664.917c-99.657 2.275-179.574 83.601-179.574 183.592 0 1.216 0.012 2.429 0.035 3.64l-0.003-0.181v427.349c-0.021 1.029-0.033 2.242-0.033 3.458 0 99.991 79.917 181.317 179.363 183.589l0.211 0.004h423.253l202.752 211.627c6.473 6.606 15.434 10.753 25.364 10.922l0.032 0c0.195 0.004 0.426 0.007 0.657 0.007 4.704 0 9.172-1.008 13.2-2.819l-0.204 0.082c13.209-6.231 22.187-19.439 22.187-34.744 0-0.025-0-0.051-0-0.076l0 0.004v-186.368c89.487-13.659 157.249-90.077 157.249-182.321 0-1.183-0.011-2.363-0.033-3.541l0.003 0.177v-427.349c0.021-1.029 0.033-2.242 0.033-3.458 0-99.991-79.917-181.317-179.363-183.589l-0.211-0.004zM937.711 610.304c0.015 0.657 0.023 1.431 0.023 2.207 0 57.981-46.394 105.125-104.085 106.336l-0.113 0.002h-12.834c-19.318 0.561-34.765 16.355-34.765 35.758 0 0.389 0.006 0.777 0.019 1.163l-0.001-0.056v127.659l-146.978-153.6c-6.136-6.605-14.821-10.77-24.48-10.922l-0.028-0h-424.004c-57.803-1.212-104.198-48.357-104.198-106.337 0-0.776 0.008-1.55 0.025-2.322l-0.002 0.115v-414.379c-0.016-0.681-0.024-1.484-0.024-2.289 0-58.104 46.325-105.389 104.056-106.935l0.143-0.003h643.072c57.874 1.549 104.199 48.833 104.199 106.938 0 0.805-0.009 1.608-0.027 2.408l0.002-0.119v414.379zM373.692 324.949c6.664 7.553 16.365 12.292 27.173 12.292 0.191 0 0.381-0.001 0.572-0.004l-0.029 0c19.582-0.7 35.486-15.568 37.801-34.626l0.019-0.19c5.406-19.182 14.306-35.844 26.056-50.063l-0.183 0.228c10.804-10.715 25.682-17.337 42.107-17.337 2 0 3.977 0.098 5.927 0.29l-0.247-0.020c0.75-0.032 1.629-0.050 2.513-0.050 16.404 0 31.351 6.242 42.594 16.48l-0.051-0.046c10.74 10.295 17.415 24.758 17.415 40.781 0 0.303-0.002 0.606-0.007 0.908l0.001-0.046c0.002 0.151 0.003 0.33 0.003 0.508 0 8.318-2.125 16.139-5.862 22.951l0.125-0.248c-3.948 7.567-8.629 14.078-14.098 19.834l0.035-0.037c-5.53 5.461-14.609 14.336-27.307 25.941-12.173 10.718-23.311 21.639-33.84 33.127l-0.293 0.324c-8.466 9.478-15.384 20.562-20.217 32.702l-0.263 0.748c-4.862 12.32-7.681 26.59-7.681 41.519 0 1.004 0.013 2.005 0.038 3.002l-0.003-0.148c-0.075 0.938-0.118 2.030-0.118 3.133 0 10.61 3.981 20.29 10.531 27.628l-0.036-0.041c6.43 6.756 15.491 10.957 25.532 10.957 18.361 0 33.441-14.048 35.078-31.983l0.010-0.137c2.116-10.24 3.755-17.067 4.847-21.163 1.294-4.483 2.828-8.333 4.683-11.992l-0.178 0.386c2.612-5.198 5.588-9.679 9.028-13.757l-0.085 0.103c5.095-5.879 10.335-11.228 15.883-16.242l0.159-0.142c24.030-22.528 40.96-38.229 49.971-47.787 9.355-9.841 17.384-21.073 23.718-33.324l0.381-0.81c6.393-12.585 10.137-27.443 10.137-43.174 0-0.902-0.012-1.8-0.037-2.696l0.003 0.132c0-0.027 0-0.060 0-0.093 0-22.754-6.614-43.962-18.025-61.809l0.276 0.461c-12.513-19.024-29.53-34.138-49.58-44.046l-0.733-0.328c-20.969-10.358-45.653-16.418-71.752-16.418-1.175 0-2.347 0.012-3.516 0.037l0.174-0.003c-0.898-0.018-1.956-0.028-3.016-0.028-28.274 0-54.832 7.349-77.868 20.241l0.807-0.415c-21.627 11.795-39.265 28.45-51.885 48.572l-0.339 0.58c-10.9 16.817-17.537 37.289-17.952 59.282l-0.002 0.11c0.456 10.204 4.81 19.31 11.598 25.934l0.008 0.008zM536.098 622.592c8.177-8.095 13.24-19.323 13.24-31.732 0-0.845-0.023-1.684-0.070-2.517l0.005 0.116c0.003-0.197 0.005-0.429 0.005-0.661 0-12.203-4.815-23.282-12.649-31.44l0.015 0.015c-7.495-8.001-18.125-12.987-29.92-12.987-0.401 0-0.801 0.006-1.2 0.017l0.059-0.001c-0.382-0.012-0.831-0.020-1.282-0.020-11.944 0-22.724 4.979-30.379 12.975l-0.015 0.015c-8.019 8.059-12.975 19.171-12.975 31.44 0 0.227 0.002 0.453 0.005 0.68l-0-0.034c-0.042 0.718-0.066 1.557-0.066 2.402 0 12.499 5.265 23.768 13.698 31.711l0.022 0.021c7.991 7.609 18.831 12.291 30.764 12.291 0.177 0 0.353-0.001 0.529-0.003l-0.027 0c11.765-0.014 22.433-4.699 30.252-12.298l-0.010 0.010z"
        ],
        "attrs": [],
        "grid": 0,
        "tags": [
          "quiz"
        ]
      },
      "attrs": [],
      "properties": {
        "order": 147,
        "id": 11,
        "name": "quiz",
        "prevSize": 32,
        "code": 59661
      },
      "setIdx": 0,
      "setId": 0,
      "iconIdx": 2
    },
    {
      "icon": {
        "paths": [
          "M261.343 432.885c-71.307-0-129.113 57.806-129.113 129.113s57.806 129.113 129.113 129.113c71.307 0 129.113-57.806 129.113-129.113v0c0-71.307-57.806-129.113-129.113-129.113v0zM261.343 634.123c-39.746-0.051-71.947-32.283-71.947-72.036 0-39.784 32.252-72.036 72.036-72.036s72.036 32.252 72.036 72.036l0 0c-0.101 39.775-32.343 71.986-72.12 72.036l-0.005 0zM522.685 991.277c-1.26-143.38-117.784-259.126-261.343-259.126-144.341 0-261.352 117.011-261.352 261.352 0 0.783 0.003 1.564 0.010 2.346l-0.001-0.119c-0 0.040-0 0.087-0 0.134 0 15.663 12.697 28.36 28.36 28.36 0.047 0 0.094-0 0.141-0l-0.007 0h466.143c0.176 0.004 0.384 0.006 0.592 0.006 15.417 0 27.915-12.498 27.915-27.915 0-1.781-0.167-3.523-0.485-5.211l0.027 0.174zM58.769 967.146c14.501-100.030 99.664-176.017 202.574-176.017s188.073 75.986 202.442 174.913l0.132 1.103h-405.148zM727.040 0c-0.059-0-0.128-0-0.198-0-164.154 0-297.227 133.073-297.227 297.227 0 69.187 23.64 132.853 63.282 183.361l-0.487-0.644-34.282 177.241c-0.288 1.534-0.453 3.299-0.453 5.103 0 10.207 5.277 19.182 13.251 24.346l0.113 0.069c4.357 2.29 9.52 3.633 14.997 3.633 6.308 0 12.2-1.783 17.2-4.872l-0.141 0.081 139.353-103.246c25.184 7.822 54.138 12.329 84.144 12.333l0.002 0c0.066 0 0.144 0 0.223 0 164.203 0 297.316-133.113 297.316-297.316 0-164.125-132.986-297.189-297.081-297.316l-0.012-0zM727.040 537.645c-0.124 0-0.27 0-0.416 0-28.437 0-55.689-5.075-80.899-14.37l1.621 0.523c-2.844-1.034-6.127-1.632-9.549-1.632-6.467 0-12.435 2.134-17.238 5.736l0.075-0.053-92.605 68.474 22.706-118.739c0.382-1.725 0.601-3.705 0.601-5.737 0-6.989-2.589-13.374-6.861-18.247l0.027 0.032c-35.944-41.769-57.83-96.531-57.83-156.405 0-132.779 107.639-240.417 240.417-240.417s240.417 107.639 240.417 240.417c0 132.779-107.639 240.417-240.417 240.417-0.017 0-0.034-0-0.050-0l0.003 0zM728.821 103.558h-1.781c-0.243-0.002-0.529-0.003-0.817-0.003-30.846 0-58.753 12.583-78.868 32.896l-0.009 0.009c-21.095 20.599-34.202 49.298-34.282 81.059l-0 0.015c0.050 15.725 12.772 28.463 28.487 28.538l0.007 0c0.080 0.001 0.174 0.001 0.269 0.001 15.589 0 28.227-12.638 28.227-28.227 0-0.11-0.001-0.22-0.002-0.33l0 0.017c0.036-15.827 6.498-30.137 16.914-40.466l0.004-0.004c10.243-10.102 24.319-16.341 39.852-16.341 31.085 0 56.334 24.986 56.76 55.97l0 0.040c0.016 0.498 0.025 1.083 0.025 1.67 0 20.039-10.599 37.602-26.497 47.389l-0.241 0.138c-34.822 21.22-57.837 58.802-58.323 101.795l-0.001 0.070c-0 15.737 12.757 28.494 28.494 28.494s28.494-12.757 28.494-28.494v-0c0.641-22.725 13.045-42.416 31.315-53.264l0.295-0.162c32.547-20.289 53.884-55.89 53.884-96.475 0-0.596-0.005-1.191-0.014-1.785l0.001 0.090c-1.377-61.492-50.742-111.013-112.042-112.637l-0.153-0.003zM727.040 423.135c-0.080-0.001-0.174-0.001-0.268-0.001-15.589 0-28.227 12.638-28.227 28.227 0 0.094 0 0.189 0.001 0.283l-0-0.014v10.952c0 15.737 12.757 28.494 28.494 28.494s28.494-12.757 28.494-28.494l-0-0v-10.952c0-0.040 0-0.087 0-0.134 0-15.746-12.752-28.513-28.492-28.538l-0.002-0z"
        ],
        "attrs": [],
        "grid": 0,
        "tags": [
          "qanda"
        ]
      },
      "attrs": [],
      "properties": {
        "order": 146,
        "id": 10,
        "name": "qanda",
        "prevSize": 32,
        "code": 59648
      },
      "setIdx": 0,
      "setId": 0,
      "iconIdx": 3
    },
    {
      "icon": {
        "paths": [
          "M873.529 150.471c-92.487-92.439-220.232-149.611-361.33-149.611-282.292 0-511.134 228.843-511.134 511.134s228.843 511.134 511.134 511.134c282.29 0 511.131-228.84 511.134-511.129l0-0c0.001-0.363 0.001-0.791 0.001-1.22 0-140.812-57.269-268.249-149.785-360.288l-0.021-0.021zM512 940.775c-236.806 0-428.775-191.969-428.775-428.775s191.969-428.775 428.775-428.775c236.806 0 428.775 191.969 428.775 428.775v-0c-0.341 236.669-192.106 428.434-428.742 428.775l-0.033 0zM682.445 623.854l-129.165-129.165v-264.988c0-22.798-18.481-41.28-41.28-41.28s-41.28 18.481-41.28 41.28h-0v282.299c0.142 11.39 4.683 21.692 11.998 29.31l-0.014-0.015 141.15 141.15c7.539 7.406 17.883 11.978 29.295 11.978s21.757-4.572 29.301-11.984l-0.006 0.006c7.406-7.539 11.978-17.883 11.978-29.295s-4.572-21.757-11.984-29.301l0.006 0.006z"
        ],
        "attrs": [],
        "grid": 0,
        "tags": [
          "lms-clocks"
        ]
      },
      "attrs": [],
      "properties": {
        "order": 134,
        "id": 9,
        "name": "lms-clocks",
        "prevSize": 32,
        "code": 59649
      },
      "setIdx": 0,
      "setId": 0,
      "iconIdx": 4
    },
    {
      "icon": {
        "paths": [
          "M341.333 785.067h614.4c37.703 0 68.267 30.564 68.267 68.267s-30.564 68.267-68.267 68.267v0h-614.4c-37.703 0-68.267-30.564-68.267-68.267s30.564-68.267 68.267-68.267v0zM341.333 443.733h614.4c37.703 0 68.267 30.564 68.267 68.267s-30.564 68.267-68.267 68.267v0h-614.4c-37.703 0-68.267-30.564-68.267-68.267s30.564-68.267 68.267-68.267v0zM341.333 102.4h614.4c37.703 0 68.267 30.564 68.267 68.267s-30.564 68.267-68.267 68.267v0h-614.4c-37.703 0-68.267-30.564-68.267-68.267s30.564-68.267 68.267-68.267v0zM0 785.067h136.533v136.533h-136.533v-136.533zM0 443.733h136.533v136.533h-136.533v-136.533zM0 102.4h136.533v136.533h-136.533v-136.533z"
        ],
        "attrs": [],
        "grid": 0,
        "tags": [
          "cats"
        ]
      },
      "attrs": [],
      "properties": {
        "order": 144,
        "id": 8,
        "name": "cats",
        "prevSize": 32,
        "code": 59650
      },
      "setIdx": 0,
      "setId": 0,
      "iconIdx": 5
    },
    {
      "icon": {
        "paths": [
          "M950.857 73.143c40.396 0 73.143 32.747 73.143 73.143v0 731.429c0 40.396-32.747 73.143-73.143 73.143s-73.143-32.747-73.143-73.143v0-731.429c0-40.396 32.747-73.143 73.143-73.143v0zM512 365.714c40.396 0 73.143 32.747 73.143 73.143v0 438.857c0 40.396-32.747 73.143-73.143 73.143s-73.143-32.747-73.143-73.143v0-438.857c0-40.396 32.747-73.143 73.143-73.143v0zM73.143 585.143c40.396 0 73.143 32.747 73.143 73.143v0 219.429c0 40.396-32.747 73.143-73.143 73.143s-73.143-32.747-73.143-73.143v0-219.429c0-40.396 32.747-73.143 73.143-73.143v0z"
        ],
        "attrs": [],
        "grid": 0,
        "tags": [
          "level"
        ]
      },
      "attrs": [],
      "properties": {
        "order": 142,
        "id": 7,
        "name": "level",
        "prevSize": 32,
        "code": 59651
      },
      "setIdx": 0,
      "setId": 0,
      "iconIdx": 6
    },
    {
      "icon": {
        "paths": [
          "M0 85.333h1024v170.667h-1024v-170.667zM0 426.667h1024v170.667h-1024v-170.667zM0 768h1024v170.667h-1024v-170.667z"
        ],
        "attrs": [],
        "grid": 0,
        "tags": [
          "hamburger"
        ]
      },
      "attrs": [],
      "properties": {
        "order": 141,
        "id": 6,
        "name": "hamburger",
        "prevSize": 32,
        "code": 59652
      },
      "setIdx": 0,
      "setId": 0,
      "iconIdx": 7
    },
    {
      "icon": {
        "paths": [
          "M933.809 584.034v-403.417c-0.112-49.875-40.513-90.276-90.377-90.388l-0.011-0h-135.68v-67.761c0-12.453-10.095-22.548-22.548-22.548s-22.548 10.095-22.548 22.548v67.781h-366.474v-67.781c0-12.507-10.139-22.646-22.646-22.646s-22.646 10.139-22.646 22.646v-0 67.781h-160.689c-49.868 0.112-90.265 40.502-90.388 90.356l-0 0.012v662.745c0.101 49.883 40.506 90.296 90.377 90.407l0.011 0h493.883c45.901 55.364 114.694 90.365 191.662 90.365 137.209 0 248.438-111.23 248.438-248.438 0-76.968-35-145.76-89.953-191.331l-0.411-0.331zM45.095 180.618c-0-0-0-0-0-0 0-24.945 20.166-45.18 45.085-45.292l0.011-0h160.689v45.292c-25.014 0-45.292 20.278-45.292 45.292s20.278 45.292 45.292 45.292c25.014 0 45.292-20.278 45.292-45.292 0-0.042-0-0.083-0-0.125l0 0.006v-90.368h366.474v45.292c-0.058-0-0.128-0-0.197-0-25.014 0-45.292 20.278-45.292 45.292s20.278 45.292 45.292 45.292c25.014 0 45.292-20.278 45.292-45.292 0-0.041-0-0.083-0-0.124l0 0.006v-90.368h135.68c24.929 0.112 45.095 20.347 45.095 45.292 0 0-0 0-0 0l-0 0v135.562h-843.422v-135.562zM90.191 888.576c-24.929-0.112-45.095-20.347-45.095-45.292 0-0 0-0 0-0l0-0v-481.93h843.422v193.162c-32.908-17.231-71.886-27.34-113.225-27.34-137.035 0-248.123 111.088-248.123 248.123 0 41.36 10.12 80.356 28.018 114.648l-0.651-1.371h-464.345zM775.68 978.944c-0.035 0-0.077 0-0.118 0-112.303 0-203.343-91.040-203.343-203.343s91.040-203.343 203.343-203.343c112.303 0 203.343 91.040 203.343 203.343v-0c-0.123 112.212-91.022 203.152-203.206 203.343l-0.018 0zM890.092 685.194l-145.132 145.034-52.775-52.834c-4.138-3.968-9.765-6.411-15.963-6.411-12.746 0-23.079 10.333-23.079 23.079 0 6.168 2.42 11.771 6.362 15.912l-0.009-0.010 69.317 69.14c4.058 4.169 9.724 6.755 15.994 6.755 0.054 0 0.108-0 0.162-0.001l-0.008 0c0.009 0 0.020 0 0.030 0 6.371 0 12.138-2.581 16.314-6.755l161.28-161.319c4.624-4.222 7.514-10.276 7.514-17.006 0-12.703-10.298-23.001-23.001-23.001-6.729 0-12.783 2.89-16.989 7.496l-0.016 0.018z"
        ],
        "attrs": [],
        "grid": 0,
        "tags": [
          "calendar"
        ]
      },
      "attrs": [],
      "properties": {
        "order": 140,
        "id": 5,
        "name": "calendar",
        "prevSize": 32,
        "code": 59653
      },
      "setIdx": 0,
      "setId": 0,
      "iconIdx": 8
    },
    {
      "icon": {
        "paths": [
          "M962.284 49.487h-900.569c-34.21 0.278-61.835 28.075-61.835 62.324 0 0.125 0 0.251 0.001 0.376l-0-0.019v630.351c-0.001 0.112-0.001 0.244-0.001 0.376 0 34.245 27.627 62.038 61.81 62.305l0.025 0h308.598v45.607c0.001 0.124 0.001 0.27 0.001 0.416 0 41.447-33.432 75.085-74.8 75.419l-0.032 0h-68.017c-12.926 0.382-23.259 10.953-23.259 23.936s10.333 23.554 23.224 23.935l0.035 0.001h569.009c12.926-0.382 23.259-10.953 23.259-23.936s-10.333-23.554-23.224-23.935l-0.035-0.001h-67.998c-41.4-0.334-74.832-33.972-74.832-75.419 0-0.146 0-0.292 0.001-0.438l-0 0.022v-45.607h308.598c34.21-0.278 61.835-28.075 61.835-62.324 0-0.125-0-0.251-0.001-0.376l0 0.019v-630.272c0.001-0.129 0.002-0.282 0.002-0.435 0-34.235-27.603-62.024-61.768-62.324l-0.028-0zM391.877 926.641c16.043-20.698 25.718-47.034 25.718-75.63 0-0.072-0-0.144-0-0.216l0 0.011v-45.607h188.928v45.607c-0 0.061-0 0.133-0 0.205 0 28.596 9.675 54.932 25.93 75.914l-0.212-0.284h-240.364zM976.955 742.518c0 0.024 0 0.051 0 0.079 0 8.094-6.528 14.663-14.606 14.729l-0.006 0h-900.628c-8.084-0.067-14.612-6.636-14.612-14.729 0-0.028 0-0.056 0-0.084l-0 0.004v-125.814h929.792v125.814zM976.955 568.832h-929.851v-456.586c-0-0.024-0-0.051-0-0.079 0-8.094 6.528-14.663 14.606-14.729l0.006-0h900.569c8.084 0.067 14.612 6.636 14.612 14.729 0 0.028-0 0.056-0 0.084l0-0.004v456.665zM512 661.189c0.111-0.002 0.243-0.003 0.374-0.003 14.28 0 25.856 11.576 25.856 25.856s-11.576 25.856-25.856 25.856c-14.28 0-25.856-11.576-25.856-25.856 0-0.006 0-0.012 0-0.018l-0 0.001c-0.001-0.070-0.001-0.153-0.001-0.237 0-14.097 11.395-25.533 25.477-25.6l0.006-0zM552.487 214.41c-4.25-4.357-10.179-7.059-16.738-7.059s-12.489 2.702-16.734 7.054l-0.005 0.005-166.873 169.157c-4.273 4.358-6.911 10.334-6.911 16.926s2.637 12.567 6.915 16.929l-0.004-0.004c4.252 4.352 10.18 7.051 16.738 7.051s12.486-2.699 16.734-7.046l0.004-0.004 166.873-169.177c4.272-4.355 6.909-10.327 6.909-16.916s-2.637-12.561-6.913-16.92l0.004 0.004zM651.382 312.438c-4.245-4.327-10.154-7.009-16.689-7.009s-12.444 2.682-16.686 7.005l-0.004 0.004-66.481 67.407c-4.273 4.358-6.911 10.334-6.911 16.926s2.637 12.567 6.915 16.929l-0.004-0.004c4.252 4.352 10.18 7.051 16.738 7.051s12.486-2.699 16.734-7.046l0.004-0.004 66.462-67.387c4.265-4.351 6.897-10.316 6.897-16.895 0-6.619-2.664-12.616-6.978-16.978l0.002 0.002z"
        ],
        "attrs": [],
        "grid": 0,
        "tags": [
          "screen"
        ]
      },
      "attrs": [],
      "properties": {
        "order": 139,
        "id": 4,
        "name": "screen",
        "prevSize": 32,
        "code": 59654
      },
      "setIdx": 0,
      "setId": 0,
      "iconIdx": 9
    },
    {
      "icon": {
        "paths": [
          "M874.085 149.915c-92.672-92.652-220.686-149.958-362.085-149.958-282.836 0-512.12 229.284-512.12 512.12s229.284 512.12 512.12 512.12c282.836 0 512.12-229.284 512.12-512.12 0-0.027-0-0.054-0-0.081l0 0.004c0.001-0.388 0.002-0.848 0.002-1.308 0-141.001-57.358-268.606-150.014-360.754l-0.023-0.023zM752.056 219.932l22.505-93.542c89.527 61.674 155.727 151.612 186.086 256.753l0.818 3.308-11.803 2.261c-17.697 3.566-31.562 16.835-35.939 33.907l-0.070 0.321-4.581 18.444c-0.076 0.287-0.333 0.496-0.639 0.496-0.151 0-0.291-0.051-0.402-0.137l0.002 0.001-27.326-20.485c-7.637-5.757-17.286-9.22-27.744-9.22-7.808 0-15.165 1.931-21.62 5.341l0.253-0.122-34.108 17.844c-14.83 7.888-24.755 23.243-24.755 40.916 0 19.678 12.305 36.482 29.64 43.137l0.316 0.107 1.6 0.6c0.222 0.050 0.391 0.232 0.42 0.457l0 0.003c0.020 0.056 0.031 0.121 0.031 0.188 0 0.161-0.066 0.307-0.171 0.412l-0 0-21.245 24.426c-0.125 0.136-0.304 0.222-0.502 0.222-0.132 0-0.256-0.038-0.361-0.103l0.003 0.002-57.253-36.949c-7.072-4.622-15.732-7.372-25.034-7.372-22.872 0-41.861 16.624-45.545 38.448l-0.038 0.271-4.421 27.006c-0.388 2.247-0.61 4.834-0.61 7.473 0 13.275 5.61 25.239 14.588 33.653l0.025 0.023 29.867 28.007c0.096 0.109 0.155 0.253 0.155 0.41s-0.059 0.301-0.156 0.411l0.001-0.001-48.671 73.777c-4.434 6.654-7.212 14.751-7.579 23.472l-0.003 0.094-4.221 105.645c-0.021 0.171-0.093 0.322-0.201 0.441l0.001-0.001-64.815 63.515c-0.109 0.087-0.248 0.14-0.4 0.14s-0.292-0.053-0.401-0.141l0.001 0.001-42.010-24.606c-0.162-0.086-0.28-0.236-0.319-0.416l-0.001-0.004s-20.385-92.502-21.145-94.562l-18.544-49.752c-6.295-16.435-21.222-28.221-39.086-29.873l-0.183-0.014-84.82-7.362c-0.225-0.021-0.415-0.151-0.518-0.337l-0.002-0.003-48.251-83.199c-0.022-0.063-0.035-0.135-0.035-0.21s0.013-0.147 0.037-0.215l-0.001 0.004 12.143-80.699c0.018-0.179 0.107-0.334 0.239-0.439l0.001-0.001 74.017-55.893c0.094-0.060 0.208-0.095 0.33-0.095s0.236 0.035 0.333 0.097l-0.003-0.001 71.797 30.007c3.73 1.609 8.055 2.767 12.579 3.263l0.204 0.018 99.423 10.803c1.512 0.176 3.263 0.276 5.038 0.276 10.085 0 19.414-3.238 27.005-8.731l-0.135 0.093 65.875-47.231c11.71-8.515 19.236-22.17 19.236-37.582 0-6.795-1.463-13.249-4.091-19.063l0.118 0.292-6.121-13.683c-7.009-15.517-21.949-26.324-39.512-27.281l-0.117-0.005-185.023-10.122c-0.042 0.013-0.090 0.021-0.14 0.021s-0.098-0.008-0.143-0.022l0.003 0.001c-0.115-0.055-0.214-0.122-0.301-0.201l0.001 0.001c-0.049-0.131-0.077-0.282-0.077-0.44s0.028-0.309 0.080-0.449l-0.003 0.009c0.11-0.064 0.237-0.113 0.373-0.139l0.008-0.001 55.533-14.964c7.683-2.125 14.305-5.935 19.708-11.025l-0.024 0.022 68.016-64.015c0.103-0.103 0.243-0.17 0.398-0.18l0.002-0 102.224-10.542c19.73-2.127 35.611-16.393 40.125-35.093l0.064-0.316zM405.775 182.363l38.209-72.017c3.815-7.056 6.057-15.446 6.057-24.36 0-3.691-0.385-7.293-1.116-10.767l0.060 0.339-5.181-25.286c20.59-3.209 44.339-5.041 68.516-5.041s47.926 1.833 71.115 5.367l-2.599-0.326c-2.015 2.28-4.113 4.358-6.339 6.292l-0.082 0.070-54.013 21.705c-7.963 3.273-14.666 8.185-19.946 14.353l-0.059 0.071-84.34 98.563c-1.123 1.304-2.745 2.15-4.566 2.24l-0.015 0.001c-0.085 0.004-0.185 0.006-0.285 0.006-1.925 0-3.649-0.861-4.809-2.218l-0.007-0.009c-0.964-1.406-1.539-3.143-1.539-5.015 0-1.422 0.332-2.766 0.922-3.959l-0.023 0.052zM206.808 159.297v68.296c0 0.028 0 0.062 0 0.096 0 19.584-10.079 36.813-25.332 46.784l-0.214 0.131-49.011 31.807c-11.407 7.468-20.93 16.8-28.384 27.663l-0.223 0.343-44.49 65.195c24.591-96.503 76.549-178.525 147.042-239.769l0.573-0.487zM236.575 831.195l-6.462 52.272c-72.647-55.572-127.928-130.467-158.489-217.033l-1.009-3.279h28.967c0-0 0-0 0-0 3.654 0 6.867 1.888 8.717 4.741l0.025 0.040 58.574 91.261c2.746 4.205 5.836 7.848 9.323 11.067l0.039 0.036 56.973 52.012c2.078 1.921 3.374 4.661 3.374 7.704 0 0.436-0.027 0.866-0.078 1.289l0.005-0.051zM512 978.589c-0.164 0-0.358 0-0.553 0-88.3 0-170.835-24.678-241.086-67.513l2.043 1.157 9.302-75.398c0.263-2.040 0.413-4.399 0.413-6.793 0-16.359-7.013-31.079-18.196-41.32l-0.042-0.038s-58.214-53.252-58.714-54.013l-58.574-91.241c-10.041-15.566-27.295-25.726-46.922-25.726-0.045 0-0.091 0-0.136 0l0.007-0h-42.010c-7.628-31.575-12.003-67.825-12.003-105.098 0-0.207 0-0.413 0-0.619l-0 0.032c0-4.001 0-7.862 0.16-11.763l95.642-140.153c4.245-6.192 9.505-11.35 15.592-15.353l0.211-0.131 48.971-31.767c28.050-18.292 46.331-49.518 46.331-85.015 0-0.065-0-0.13-0-0.196l0 0.010v-103.104c42.039-28.672 91.019-51.132 143.597-64.615l3.218-0.7 5.241 25.626c0.083 0.387 0.13 0.831 0.13 1.287 0 1.087-0.27 2.111-0.747 3.009l0.017-0.035-38.229 72.017c-1.973 4.489-3.848 9.918-5.307 15.514l-0.175 0.789c-0.617 3.007-0.971 6.464-0.971 10.003 0 28.666 23.19 51.916 51.834 52.012l0.009 0c15.758-0.024 29.876-7.025 39.433-18.078l0.056-0.066 84.32-98.583c0.667-0.765 1.497-1.37 2.437-1.764l0.044-0.016 54.013-21.705c7.949-3.268 14.649-8.151 19.949-14.277l0.056-0.066 20.425-23.746c38.958 10.515 72.942 24.412 104.666 41.904l-2.402-1.214c-0.54 1.22-26.306 107.645-26.306 107.645-0.060 0.268-0.283 0.471-0.557 0.5l-0.003 0-102.244 10.522c-10.525 1.135-19.83 5.634-26.989 12.384l0.023-0.021-67.916 64.015c-0.078 0.070-0.172 0.125-0.275 0.158l-0.006 0.002-55.553 14.944c-19.841 5.476-34.17 23.364-34.17 44.599 0 24.624 19.269 44.748 43.551 46.117l0.121 0.005 185.003 10.142c0.001-0 0.001-0 0.002-0 0.252 0 0.468 0.156 0.557 0.376l0.001 0.004 6.121 13.683c0.035 0.078 0.055 0.168 0.055 0.264 0 0.22-0.108 0.415-0.273 0.535l-0.002 0.001-65.875 47.211c-0.105 0.078-0.237 0.125-0.38 0.125-0.028 0-0.056-0.002-0.083-0.005l0.003 0-99.623-10.863-71.777-30.007c-5.217-2.208-11.283-3.492-17.649-3.492-10.5 0-20.185 3.492-27.957 9.377l0.116-0.084-74.017 55.913c-9.427 7.148-15.966 17.677-17.812 29.751l-0.032 0.256-12.143 80.699c-0.322 2.052-0.507 4.418-0.507 6.827 0 8.537 2.313 16.533 6.346 23.397l-0.118-0.217 48.251 83.22c7.501 12.73 20.604 21.468 35.83 22.832l0.178 0.013 84.82 7.362c0.259 0.031 0.471 0.203 0.559 0.435l0.002 0.005 18.564 49.832 19.305 88.321c2.897 12.865 10.831 23.487 21.573 29.89l0.213 0.117 42.010 24.626c6.682 3.974 14.732 6.322 23.331 6.322 12.595 0 24.014-5.039 32.349-13.211l-0.008 0.007 64.815-63.515c8.135-7.963 13.325-18.906 13.801-31.060l0.003-0.087 4.241-105.585c-0.014-0.054-0.022-0.116-0.022-0.18s0.008-0.126 0.023-0.185l-0.001 0.005 48.531-73.737c4.813-7.157 7.683-15.971 7.683-25.455 0-13.296-5.639-25.274-14.657-33.674l-0.028-0.025-29.867-28.007c-0.128-0.121-0.208-0.291-0.208-0.481 0-0.035 0.003-0.070 0.008-0.103l-0 0.004 4.421-27.006c0-0.237 0.159-0.437 0.376-0.499l0.004-0.001c0.087-0.059 0.195-0.094 0.31-0.094s0.223 0.035 0.312 0.095l-0.002-0.001 57.253 36.949c7.071 4.58 15.716 7.303 24.996 7.303 13.884 0 26.345-6.094 34.854-15.754l0.044-0.051 21.245-24.406c7.043-8.062 11.338-18.682 11.338-30.305 0-19.676-12.308-36.478-29.646-43.126l-0.316-0.107-1.62-0.62-0.32-0.16c-0.047-0.125-0.075-0.269-0.075-0.42s0.027-0.295 0.077-0.429l-0.003 0.008 0.3-0.22 34.008-17.844c0.1-0.061 0.221-0.097 0.35-0.097s0.25 0.036 0.353 0.099l-0.003-0.002 27.326 20.485c7.622 5.774 17.263 9.249 27.715 9.249 21.556 0 39.66-14.778 44.733-34.756l0.069-0.319 4.581-18.424c0.055-0.257 0.26-0.455 0.516-0.5l0.004-0.001 13.303-2.561c4.515 24.377 7.096 52.427 7.096 81.079 0 257.717-208.879 466.647-466.576 466.729l-0.008 0z"
        ],
        "attrs": [],
        "grid": 0,
        "tags": [
          "world"
        ]
      },
      "attrs": [],
      "properties": {
        "order": 138,
        "id": 3,
        "name": "world",
        "prevSize": 32,
        "code": 59655
      },
      "setIdx": 0,
      "setId": 0,
      "iconIdx": 10
    },
    {
      "icon": {
        "paths": [
          "M510.72 570.816c146.589-2.875 264.32-122.384 264.32-269.391 0-148.808-120.632-269.44-269.44-269.44-148.655 0-269.193 120.386-269.44 268.984l-0 0.024c1.262 149.295 122.582 269.836 272.055 269.836 0.881 0 1.761-0.004 2.64-0.013l-0.134 0.001zM510.72 102.336c107.909 2.155 194.56 90.14 194.56 198.363 0 109.573-88.827 198.4-198.4 198.4-109.56 0-198.379-88.805-198.4-198.361l-0-0.002c1.406-109.84 90.776-198.341 200.817-198.341 0.5 0 1.001 0.002 1.5 0.005l-0.077-0zM35.84 991.936h952.32c0.248 0.006 0.539 0.010 0.832 0.010 19.669 0 35.617-15.929 35.648-35.591l0-0.003c-1.95-187.366-154.292-338.504-341.935-338.504-0.839 0-1.677 0.003-2.514 0.009l0.129-0.001h-336.64c-0.575-0.003-1.255-0.005-1.936-0.005-187.603 0-339.901 151.159-341.743 338.327l-0.001 0.175c-0 0.038-0 0.084-0 0.129 0 19.617 15.903 35.52 35.52 35.52 0.113 0 0.225-0.001 0.337-0.002l-0.017 0zM343.68 689.024h336.64c0.556-0.004 1.214-0.006 1.872-0.006 135.69 0 248.030 99.969 267.388 230.273l0.18 1.478h-874.88c19.858-131.763 132.291-231.617 268.047-231.617 0.265 0 0.529 0 0.794 0.001l-0.041-0z"
        ],
        "attrs": [],
        "grid": 0,
        "tags": [
          "user"
        ]
      },
      "attrs": [],
      "properties": {
        "order": 137,
        "id": 2,
        "name": "user",
        "prevSize": 32,
        "code": 59656
      },
      "setIdx": 0,
      "setId": 0,
      "iconIdx": 11
    },
    {
      "icon": {
        "paths": [
          "M972.8 153.6h-307.2v-102.4c-0-28.277-22.923-51.2-51.2-51.2l0-0h-204.8c-28.277 0-51.2 22.923-51.2 51.2v-0 102.4h-307.2c-28.277 0-51.2 22.923-51.2 51.2v0 768c0 28.277 22.923 51.2 51.2 51.2v0h921.6c28.277 0 51.2-22.923 51.2-51.2v0-768c0-28.277-22.923-51.2-51.2-51.2h-0zM409.6 51.2h204.8v102.4h-204.8v-102.4zM972.8 972.8h-921.6v-512h358.4v51.2c0 28.277 22.923 51.2 51.2 51.2v0h102.4c28.277 0 51.2-22.923 51.2-51.2v0-51.2h358.4v512zM460.8 512v-51.2h102.4v51.2h-102.4zM972.8 409.6h-921.6v-204.8h921.6v204.8z"
        ],
        "attrs": [],
        "grid": 0,
        "tags": [
          "case"
        ]
      },
      "attrs": [],
      "properties": {
        "order": 136,
        "id": 1,
        "name": "case",
        "prevSize": 32,
        "code": 59657
      },
      "setIdx": 0,
      "setId": 0,
      "iconIdx": 12
    },
    {
      "icon": {
        "paths": [
          "M877.945 203.938l-28.564 44.787c74.13 41.621 123.397 119.734 123.397 209.354s-49.267 167.733-122.195 208.733l-1.202 0.621 28.564 44.787c87.958-51.944 146.032-146.26 146.032-254.141s-58.074-202.197-144.665-253.393l-1.367-0.748zM819.2 107.789c0.001-0.135 0.002-0.294 0.002-0.454 0-20.763-11.672-38.801-28.812-47.909l-0.293-0.142c-6.419-3.377-14.023-5.368-22.090-5.389l-0.007-0c-12.178 0.014-23.311 4.479-31.861 11.856l0.063-0.053-241.987 203.776h-315.284c-99.895 5.506-178.815 87.852-178.815 188.632s78.919 183.126 178.328 188.61l0.486 0.021h29.642l118.029 290.708c5.438 13.562 16.030 24.084 29.29 29.304l0.352 0.122c5.109 2.049 11.031 3.237 17.231 3.237 0.195 0 0.389-0.001 0.584-0.004l-0.030 0c8.292-0.014 16.088-2.128 22.887-5.838l-0.251 0.126 102.4-53.895c17.11-9.568 28.488-27.573 28.488-48.236 0-7.644-1.557-14.924-4.371-21.541l0.136 0.36-79.225-194.344h50.122l241.987 203.776c8.502 7.296 19.624 11.753 31.787 11.803l0.011 0c8.074-0.021 15.678-2.012 22.363-5.517l-0.267 0.127c17.435-9.265 29.105-27.311 29.105-48.084 0-0.148-0.001-0.296-0.002-0.444l0 0.023v-700.632zM204.8 592.842h-25.869c-74.413 0-134.737-60.324-134.737-134.737s60.324-134.737 134.737-134.737v0h25.869v269.474zM475.891 862.316l-101.861 53.895-109.945-269.474h124.497zM768 808.421l-256-215.579h-256v-269.474h256l256-215.579v700.632z"
        ],
        "attrs": [],
        "grid": 0,
        "tags": [
          "horn"
        ]
      },
      "attrs": [],
      "properties": {
        "order": 135,
        "id": 0,
        "name": "horn",
        "prevSize": 32,
        "code": 59658
      },
      "setIdx": 0,
      "setId": 0,
      "iconIdx": 13
    }
  ],
  "height": 1024,
  "metadata": {
    "name": "stmlms"
  },
  "preferences": {
    "showGlyphs": true,
    "showQuickUse": true,
    "showQuickUse2": true,
    "showSVGs": true,
    "fontPref": {
      "prefix": "stmlms-",
      "metadata": {
        "fontFamily": "stmlms",
        "majorVersion": 1,
        "minorVersion": 0
      },
      "metrics": {
        "emSize": 1024,
        "baseline": 6.25,
        "whitespace": 50
      },
      "embed": false,
      "showSelector": true,
      "showMetrics": false,
      "showMetadata": false,
      "showVersion": false,
      "cssVars": true,
      "cssVarsFormat": "scss",
      "autoHost": true
    },
    "imagePref": {
      "prefix": "icon-",
      "png": true,
      "useClassSelector": true,
      "color": 0,
      "bgColor": 16777215,
      "classSelector": ".icon"
    },
    "historySize": 100,
    "showCodes": true,
    "gridSize": 16,
    "quickUsageToken": {
      "Crypterio": "NDk3MGVhNzA5M2UzNmQwYzQ2MDc5YzY2ZDNhMmUwNjYjMSMxNTMyNjg1ODUyIyMj"
    }
  }
}